…
* Mean and median:


```r
activity_by_date %>% select(c(date, Steps.Average, Steps.Median))
```

```
## # A tibble: 61 x 3
##          date Steps.Average Steps.Median
##        <date>         <dbl>        <dbl>
##  1 2012-10-01       0.00000      0.00000
##  2 2012-10-02       0.43750      0.43750
##  3 2012-10-03      39.41667     39.41667
##  4 2012-10-04      42.06944     42.06944
##  5 2012-10-05      46.15972     46.15972
##  6 2012-10-06      53.54167     53.54167
##  7 2012-10-07      38.24653     38.24653
##  8 2012-10-08       0.00000      0.00000
##  9 2012-10-09      44.48264     44.48264
## 10 2012-10-10      34.37500     34.37500
## # ... with 51 more rows
```
…
